v {xschem version=2.9.9 file_version=1.2 }
G {}
K {}
V {}
S {}
E {}
N 3830 -460 3830 -390 { lab=vdda1}
N 3730 -460 3830 -460 { lab=vdda1}
N 3860 -230 3860 -180 { lab=vssa1}
N 3770 -180 3860 -180 { lab=vssa1}
N 3890 -460 3890 -390 { lab=vccd1}
N 3890 -460 3960 -460 { lab=vccd1}
N 3890 -130 3890 -60 { lab=vccd1}
N 3890 -130 3950 -130 { lab=vccd1}
N 3830 -130 3830 -60 { lab=io_analog[4]}
N 3790 -130 3830 -130 { lab=io_analog[4]}
N 3860 100 3860 150 { lab=vssa1}
N 3800 150 3860 150 { lab=vssa1}
N 4010 -10 4110 -10 { lab=gpio_analog[7]}
N 4010 20 4110 20 { lab=io_out[15]}
N 4010 50 4110 50 { lab=io_out[16]}
N 4010 -340 4130 -340 { lab=gpio_analog[3]}
N 4010 -310 4130 -310 { lab=io_out[11]}
N 4010 -280 4130 -280 { lab=io_out[12]}
C {example_por.sym} 3860 -310 0 0 {name=x1}
C {example_por.sym} 3860 20 0 0 {name=x2}
C {devices/iopin.sym} 3240 -470 0 0 {name=p1 lab=vdda1}
C {devices/iopin.sym} 3240 -440 0 0 {name=p2 lab=vdda2}
C {devices/iopin.sym} 3240 -410 0 0 {name=p3 lab=vssa1}
C {devices/iopin.sym} 3240 -380 0 0 {name=p4 lab=vssa2}
C {devices/iopin.sym} 3240 -350 0 0 {name=p5 lab=vccd1}
C {devices/iopin.sym} 3240 -320 0 0 {name=p6 lab=vccd2}
C {devices/iopin.sym} 3240 -290 0 0 {name=p7 lab=vssd1}
C {devices/iopin.sym} 3240 -260 0 0 {name=p8 lab=vssd2}
C {devices/ipin.sym} 3290 -190 0 0 {name=p9 lab=wb_clk_i}
C {devices/ipin.sym} 3290 -160 0 0 {name=p10 lab=wb_rst_i}
C {devices/ipin.sym} 3290 -130 0 0 {name=p11 lab=wbs_stb_i}
C {devices/ipin.sym} 3290 -100 0 0 {name=p12 lab=wbs_cyc_i}
C {devices/ipin.sym} 3290 -70 0 0 {name=p13 lab=wbs_we_i}
C {devices/ipin.sym} 3290 -40 0 0 {name=p14 lab=wbs_sel_i[3:0]}
C {devices/ipin.sym} 3290 -10 0 0 {name=p15 lab=wbs_dat_i[31:0]}
C {devices/ipin.sym} 3290 20 0 0 {name=p16 lab=wbs_adr_i[31:0]}
C {devices/opin.sym} 3280 80 0 0 {name=p17 lab=wbs_ack_o}
C {devices/opin.sym} 3280 110 0 0 {name=p18 lab=wbs_dat_o[31:0]}
C {devices/ipin.sym} 3290 150 0 0 {name=p19 lab=la_data_in[127:0]}
C {devices/opin.sym} 3280 180 0 0 {name=p20 lab=la_data_out[127:0]}
C {devices/ipin.sym} 3290 260 0 0 {name=p21 lab=io_in[26:0]}
C {devices/ipin.sym} 3290 290 0 0 {name=p22 lab=io_in_3v3[26:0]}
C {devices/ipin.sym} 3280 570 0 0 {name=p23 lab=user_clock2}
C {devices/opin.sym} 3280 320 0 0 {name=p24 lab=io_out[26:0]}
C {devices/opin.sym} 3280 350 0 0 {name=p25 lab=io_oeb[26:0]}
C {devices/iopin.sym} 3250 410 0 0 {name=p26 lab=gpio_analog[17:0]}
C {devices/iopin.sym} 3250 440 0 0 {name=p27 lab=gpio_noesd[17:0]}
C {devices/iopin.sym} 3250 470 0 0 {name=p29 lab=io_analog[10:0]}
C {devices/iopin.sym} 3250 500 0 0 {name=p30 lab=io_clamp_high[2:0]}
C {devices/iopin.sym} 3250 530 0 0 {name=p31 lab=io_clamp_low[2:0]}
C {devices/opin.sym} 3270 600 0 0 {name=p32 lab=user_irq[2:0]}
C {devices/ipin.sym} 3290 210 0 0 {name=p28 lab=la_oenb[127:0]}
C {devices/lab_pin.sym} 3730 -460 0 0 {name=l1 sig_type=std_logic lab=vdda1}
C {devices/lab_pin.sym} 3770 -180 0 0 {name=l2 sig_type=std_logic lab=vssa1}
C {devices/lab_pin.sym} 3960 -460 0 1 {name=l3 sig_type=std_logic lab=vccd1}
C {devices/lab_pin.sym} 3950 -130 0 1 {name=l4 sig_type=std_logic lab=vccd1}
C {devices/lab_pin.sym} 3790 -130 0 0 {name=l5 sig_type=std_logic lab=io_analog[4]}
C {devices/lab_pin.sym} 3800 150 0 0 {name=l6 sig_type=std_logic lab=vssa1}
C {devices/lab_pin.sym} 4130 -340 0 1 {name=l7 sig_type=std_logic lab=gpio_analog[3]}
C {devices/lab_pin.sym} 4130 -310 0 1 {name=l8 sig_type=std_logic lab=io_out[11]}
C {devices/lab_pin.sym} 4130 -280 0 1 {name=l9 sig_type=std_logic lab=io_out[12]}
C {devices/lab_pin.sym} 4110 -10 0 1 {name=l10 sig_type=std_logic lab=gpio_analog[7]}
C {devices/lab_pin.sym} 4110 20 0 1 {name=l11 sig_type=std_logic lab=io_out[15]}
C {devices/lab_pin.sym} 4110 50 0 1 {name=l12 sig_type=std_logic lab=io_out[16]}
C {ldo/sch/ldo_top.sym} 4450 -320 0 0 {
name=I1
}
